https://ps.sioe.cn/uploadfile/201001/29/EB102948442.jpg
https://a.ksd-i.com/a/2016-11-29/87781-477146.png
http://4.bp.blogspot.com/-Wl59RBQ9g8Y/UAa-HRdM5GI/AAAAAAAAAu4/N0D9yDqhBwg/s1600/ce6cdWru6EcPU.jpg
https://s.zimedia.com.tw/s/zcWSQ2-0
https://pic4.zhimg.com/80/v2-e48963b90ce0f724d3ca44c77529831d_hd.jpg
http://file01.16sucai.com/d/file/2013/0614/20130614094629551.jpg
https://pic.pimg.tw/missrachelnina/1467630888-376575904_n.jpg
https://img.pconline.com.cn/images/upload/upc/tx/photoblog/1310/13/c3/27425460_27425460_1381637573140_mthumb.jpg
http://weseelive.com/wp-content/uploads/2018/05/222222222-1.jpg
http://img18.3lian.com/d/file/201706/14/a34806f7904ef35302772fd67f6887b1.jpg
http://5b0988e595225.cdn.sohucs.com/images/20180620/f959e827101e40a4a6bda360b7ee5031.jpeg
https://pic.pimg.tw/serenity/48f566184fb42_n.jpg
https://i1.kknews.cc/SIG=6eqsoj/39n600037p87qn220480.jpg
https://ps.sioe.cn/uploadfile/201104/13/50104444338.jpg
http://i1.bangqu.com/images/read/news/0Gc6kXo0jN.jpg
http://www.68pslm.com/uploadfile/201408/zbimzd3wit5.jpg
http://img0.pconline.com.cn/pconline/1606/27/8073560_01_thumb.png
https://www.fotobeginner.com/wp-content/uploads/2014/08/114.jpg
http://www.tongd.net/special/ds_abcbook/image/beginner05_04.jpg
https://bbs-fd.zol-img.com.cn/t_s1200x5000/g1/M04/01/0A/Cg-4jlLq7OqIW2CKAAMTtCJXcNkAAFGUgMjcc0AAxPM433.jpg
https://ps.sioe.cn/uploadfile/201001/5/9D102335643.jpg
https://www.freebrushs.com/wp-content/uploads/2018/04/19591I611-0.jpg
http://www.china5080.com/frontuserfiles/a114087510/image/%E8%80%81%E8%82%96%E9%A1%B6%E4%BA%BA%E7%89%A9%E7%85%A754.JPG
http://img18.3lian.com/d/file/201706/14/c26e81b27612a033ef638154017f9f91.jpg
https://pic.pimg.tw/jojoj7789/1433958982-3569920375.jpg
http://static.flickr.com/92/280684941_8817eb591f_o.jpg
https://img.tulaoshi.com/image/20160406/b8faae5822795b677aeb90566a5e4a54.jpg
http://www.sxunt.com/course/images/beginner05_01_s.jpg
https://s.yimg.com/ny/api/res/1.2/UR49M9.UWiYQ1T.w_uiJQA--~A/YXBwaWQ9aGlnaGxhbmRlcjtzbT0xO3c9ODAwO2lsPXBsYW5l/http://media.zenfs.com/zh_hant_tw/News/KoreaStar/63396-331674.jpg
http://p.xueyouba.com/images/a/58999/4609050309461546277837.jpg
https://bbs-fd.zol-img.com.cn/t_s1200x5000/g3/M07/0E/06/Cg-4V1GwHP-IYD_RAAHDSLUkXh8AAJi5wO_L8cAAcNg017.jpg
http://www.hfhmgj.com/uploads/allimg/161230/1-1612301I239194.jpg
http://www.drawwithlight.hk/wp-content/uploads/2015/04/00117.jpg
https://c1.staticflickr.com/6/5350/17837315209_7e39634ab7_b.jpg
https://img.taodabai.com/upload/dc/38/dc38141598de92c4cd1b29df85d3b637.jpg
https://i1.kknews.cc/SIG=2hevqg1/59450002s73739416s0s.jpg
http://p1-q.mafengwo.net/s9/M00/D6/A0/wKgBs1ZuiiGALeeuAAQ1TjjRCN086.jpeg?imageView2%2F2%2Fw%2F2000%2Fh%2F600%2Fq%2F90
http://imgupload.youboy.com/imagestore20180508beec69a1-895e-4488-af32-f66e0efd5424.jpg
https://4.share.photo.xuite.net/simon_shen7/147b715/15367975/821509870_m.jpg
http://www.alitaizi.com/wp-content/uploads/2016/05/2012022322154015725.jpg
https://cdn0-digiphoto.techbang.com/system/images/109041/medium/682986ca3949f2c75e3e3d68406e8446.jpg?1461915983
https://farm5.static.flickr.com/4166/34625158002_ef1f419640_b.jpg
https://www.trustphoto.com.tw/wp-content/uploads/2017/02/IMG_0841.jpg
https://i2.kknews.cc/SIG=17ms50u/q020004np5534s6rs1p.jpg
http://imgtu.5011.net/uploads/content/20170717/8768561500286127.jpg
https://www.fotobeginner.com/wp-content/uploads/2014/08/35.jpg
http://www.xker.com/xkerfiles/allimg/1002/02035B1Q-0.jpg
https://truth.bahamut.com.tw/s01/201509/b29e4474f28103d6c3f3cd8a0e4b66c4.JPG
http://www.psahz.com/uploads/allimg/130104/1441125S5-0.jpg
https://img.itw01.com/images/2018/03/20/14/1630_0pQTD7_V8AS4ES.jpg
https://www.yiqilook.com/d/file/mxpic/2018-07-20/ce51acc7001847ec0806675adc1f6f19.jpg
https://cdn0.techbang.com/system/images/426961/original/6856f0b4e6d0c044b51c72e183079f10.jpg?1515497456
http://pic2.zhimg.com/bb8c5baa268c6ed81e4fd15547e435b1.jpg
https://k.zol-img.com.cn/dcbbs/22102/a22101439_01000.jpg
http://images.gamme.com.tw/news2/2013/30/60/p6CSn6CXk5_W.jpg
http://img1.gtimg.com/fashion/pics/hv1/58/120/1907/124033333.jpg
https://ps.sioe.cn/uploadfile/201207/29/4E163723758.jpg
http://www.tqxz.com/lishizixun/uploadfile/2018/0509/20180509120826670.jpg
https://en.pimg.jp/023/055/729/1/23055729.jpg
http://images.china.cn/attachement/jpg/site1000/20150519/c89cdcae397616c5375345.jpg
http://eipa.tw/wp-content/uploads/2015/08/cZj8498.jpg
http://data.it-007.org/info/files/allimg/080622/2206380.jpg
https://pic.pimg.tw/crownfilm/4a51a0a752760.jpg
https://att2.citysbs.com/hangzhou/2015/03/04/08/middle_640x426-085059_v2_12831425430259391_84d22ec97925ee9b25333ca390416729.jpg
https://cdn2.ettoday.net/images/1265/1265831.jpg
https://i3.read01.com/SIG=3f7p7pm/30455344393873424874.jpg
https://s314.siliconimg.com/kb/content_images/2016/01/28/1000830/1453956183_795.png
https://img.pconline.com.cn/images/photoblog/1/0/0/4/10040732/20102/15/1266203053101_mthumb.jpg
http://a4.att.hudong.com/34/07/300000997708129031078223950_950.jpg
http://n.sinaimg.cn/front/363/w635h528/20190128/un0c-hshmsth4899508.jpg
http://p0.ifengimg.com/pmop/2018/0718/0FDF91904D8A9CA1A3A3508EF237417815658F52_size122_w670_h424.jpeg
http://img.focussy.com/sharingSub/1808/so1317931595220142518589.jpg
http://static.flickr.com/95/280684945_3d916859a6_o.jpg
http://img2.scimg.cn/userupload/yz/item/1670/800x800/13191205713dfbf1de4892799.jpg
https://img.zcool.cn/community/01f85d5b9e50b2a801213deaf6f8ef.jpg@260w_195h_1c_1e_1o_100sh.jpg
https://pic3.zhimg.com/80/v2-db583adc38a8a3598c5be53016af68e0_hd.jpg
http://pic.wumaow.org/d/file/p/201810/13181033-63659.jpg
http://image.zixundingzhi.com/MB4u5raGpd4_Nuk8QWymjvLrrNI=/660x0/full/2b5e88c2dbcdc8789f8bbfb4a18225782d8bdd71
https://s.yimg.com/ny/api/res/1.2/U31HcOk0b1T_kf3.1fc55Q--~A/YXBwaWQ9aGlnaGxhbmRlcjtzbT0xO3c9ODAw/http://media.zenfs.com/zh-Hant-HK/homerun/koreastardaily.com/8eae4f9bb2f0036a289211549a52057a
https://i1.kknews.cc/SIG=jn3jm7/3r5800039850o09212p4.jpg
https://bbs-fd.zol-img.com.cn/t_s1200x5000/g3/M05/05/03/Cg-4V1K1dNeIMT5kAAIoTFUldC8AAO9cQHfNAEAAihk172.jpg
https://1.bp.blogspot.com/-dAbTCw8HfYI/Vxfnr-I8uSI/AAAAAAAABOg/OYQ6UxOAqQktAxJGsl3WlftnEWvHUtGqQCKgB/s1600/120.JPG
http://s6.sinaimg.cn/bmiddle/00244wR3zy7lOIN3sARd5&690
http://i1.excel99.com/xab7615eaafdf6179daf596576c67fe09119fc94e.jpg
http://n2-q.mafengwo.net/s9/M00/D6/BA/wKgBs1ZuimuAAUyoAAURNsAwZrU03.jpeg?imageView2%2F2%2Fw%2F2000%2Fh%2F600%2Fq%2F90
https://images2.gamme.com.tw/news2/2012/79/45/p5_Wn6KelKGX.jpg
http://img.timetw.com/4/21015_11102311581061.jpg
https://s.yimg.com/ny/api/res/1.2/825I7thMyOsfyhnlyATBpg--~A/YXBwaWQ9aGlnaGxhbmRlcjtzbT0xO3c9ODAwO2lsPXBsYW5l/http://media.zenfs.com/zh_hant_tw/News/KoreaStar/99648-553928.jpg
http://www.ps-xxw.cn/uploadfile/201203/21/C221148345.jpg
https://watermark.lovepik.com/photo/50022/4691.jpg_wh1200.jpg
https://img.16pic.com/00/56/44/16pic_5644464_s.jpg
http://hbimg.b0.upaiyun.com/89408f774b400a61e22522ce42ff0307a4c4c3ab10e74a-h1AZMW_fw658
https://www.yiqilook.com/d/file/mxpic/2018-08-18/454b199aa4c1313e9c7e1d2e27501d49.jpg
https://s.zimedia.com.tw/c/AK69bt
https://pic.pimg.tw/missrachelnina/1467630907-1182703432_n.jpg
http://images.china.cn/attachement/jpg/site1000/20150519/c89cdcae397616c5375346.jpg
http://cms.xitek.com/uploads/allimg/160406/7550_06173827_1.jpg
https://kobayashiphotocom.files.wordpress.com/2018/08/39293479_10213959122676473_1679067891858669568_n.jpg?w=696
https://a.ksd-i.com/a/2017-11-07/99648-553931.jpg
https://www.chinataxphoto.com/upload/2019/01/20190113020743094.jpg
https://en.pimg.jp/023/780/729/1/23780729.jpg
http://www.china5080.com/frontuserfiles/a114087510/image/%E8%80%81%E8%82%96%E9%A1%B6%E4%BA%BA%E7%89%A9%E7%85%A712.jpg
http://e0.ifengimg.com/12/2019/0216/34F3D4810766D88354AC7819642D7739B6E01893_size179_w600_h450.jpeg
https://image.cn.made-in-china.com/cnimg/prod_0d7M0ccm8N8k/0/%E6%9C%80%E5%85%A8%E4%BA%BA%E5%83%8F%E6%91%84%E5%BD%B1%E5%B8%83%E5%85%89%E6%8A%80%E5%B7%A7%E6%B1%87%E6%80%BB%E5%B9%BF%E5%B7%9E%E8%82%96%E5%83%8F%E4%BA%BA%E7%89%A9%E7%85%A7%E6%91%84%E5%BD%B1%E6%8B%8D%E6%91%84_800x800.jpg
https://bbs-fd.zol-img.com.cn/t_s1200x5000/g1/M02/00/01/Cg-4jlNkTpyIPtmKAB75e4r924sAAM_0AM2o7MAHvmT290.jpg
http://n2-q.mafengwo.net/s9/M00/D6/BA/wKgBs1ZuimuAAUyoAAURNsAwZrU03.jpeg?imageView2%2F2%2Fw%2F2000%2Fh%2F600%2Fq%2F90
https://img1.mydrivers.com/img/20190216/d68d68e7e603470eb237f08e8131a7ff.jpg
http://www.people.com.cn/mediafile/pic/20150519/92/16974810644407803240.jpg
https://a.rimg.com.tw/s1/1/a1/bd/21546088139197_290_m.jpg
http://5b0988e595225.cdn.sohucs.com/images/20181027/a792ce20379f463abccfbaeeef6b04f9.jpeg
http://image.digitalarchives.tw/ImageCache/00/46/7b/02.jpg
https://pic4.zhimg.com/80/8c535783a275d7c6586c606a33f844fb_hd.jpeg
https://i2.read01.com/SIG=13v9dlr/304a3876795178707061.jpg
http://i2.funpeer.com/Godg0lYzYGde.jpg
https://img.zcool.cn/community/010b305adf00d0a801214a6191e8b9.jpeg@260w_195h_1c_1e_1o_100sh.jpg
https://en.pimg.jp/042/322/474/1/42322474.jpg
http://i1.excel99.com/x2550bfa4f04afa755568e0dc311db4da34fc4d9c.jpg
http://hbimg.b0.upaiyun.com/a6ecd984b961bccc67bf5688716dcd06d7263974b705-MAs53d_fw658
http://imgtu.5011.net/uploads/content/20170717/3673021500286127.jpg
http://image.zixundingzhi.com/MB4u5raGpd4_Nuk8QWymjvLrrNI=/660x0/full/2b5e88c2dbcdc8789f8bbfb4a18225782d8bdd71
https://s.yimg.com/ny/api/res/1.2/3vSrCPLUGXD1FqqOMhk__A--~A/YXBwaWQ9aGlnaGxhbmRlcjtzbT0xO3c9ODAwO2lsPXBsYW5l/http://media.zenfs.com/zh_hant_tw/News/KoreaStar/141994-217671.jpg
https://ss0.baidu.com/6ONWsjip0QIZ8tyhnq/it/u=1860775020,2892618952&fm=175&s=9CC27A235445CEEE40A9EDD30100C0B0&w=640&h=806&img.JPG
https://pic.pimg.tw/ypumis/1379522419-2748651862.jpg
https://pic0.iqiyipic.com/image/20181030/98/46/v_120521222_m_601_220_124.jpg
https://a.ksd-i.com/a/2017-11-07/99648-553931.jpg
https://ps.sioe.cn/uploadfile/201207/29/8D163728432.jpg
http://p2.pstatp.com/large/6745/589637155
https://wx2.sinaimg.cn/large/006K5BjIgy1fh95p9cim7j31120rsaux.jpg
https://im2.book.com.tw/image/getImage?i=https://www.books.com.tw/img/001/057/13/0010571343.jpg&v=50d5a802&w=348&h=348
https://img.pconline.com.cn/images/upload/upc/tx/photoblog/1902/10/c4/131619719_1549790528846_mthumb.jpg
http://seopic.699pic.com/photo/50022/4690.jpg_wh1200.jpg
https://i0.wp.com/photos11.flickr.com/13117268_4db94cb605.jpg?resize=320%2C240
http://image.99ys.com/images/20130204/20130204112149478406.jpg
http://www.geren-jianli.net/upload/c/4c/c4cd46d815cff4964c7188d9835e2720.jpg
https://farm8.static.flickr.com/7889/46242646914_cc5109f73e_b.jpg
http://www.psahz.com/uploads/allimg/130107/09101531X-0.jpg
http://p3.pstatp.com/large/1b830005d14f51ba7435
https://upload-images.jianshu.io/upload_images/2657232-80f11b2a7cef4f52.JPG?imageMogr2/auto-orient/strip%7CimageView2/2/w/1000/format/webp
https://en.pimg.jp/005/215/183/1/5215183.jpg
https://si2.kknews.cc/SIG=4kpakv/3o60004r8s8oqpq3261.jpg
https://pic2.zhimg.com/80/1fbf0c8a8fbe09c607cb806cba03b7ad_hd.jpg
http://www.zzwww.in/uploads/allimg/c171218/15136013V40a0-11159.jpg
http://photocdn.sohu.com/20110922/Img320198786.jpg
https://truth.bahamut.com.tw/s01/201509/04b35b9291e1ab4ad129dd5f1b2f510d.JPG
https://img.appledaily.com.tw/images/twapple_sub/640pix/20181106/MN01/MN01_006.jpg
https://dmtoday.news/zh/wp-content/uploads/2018/08/b9fb9d37bdf15a6.jpg
http://upload.gezila.com/data/20130718/24401374127889.jpg
https://i0.wp.com/p3.pstatp.com/large/18570004cca9dbea35c7
https://www.yiqilook.com/d/file/mxpic/2018-08-18/081617ee4d9c95314cd4d74672a9461c.jpg
https://bbs-fd.zol-img.com.cn/t_s1200x5000/g1/M04/01/0A/Cg-4jlLq7OqINybrAAMDDAjf0gEAAFGUgMnBOMAAwMk265.jpg
https://s.zimedia.com.tw/s/EDnMiU-5
https://c1.staticflickr.com/4/3871/14719874569_b1c469b084_b.jpg
http://www.china5080.com/frontuserfiles/a114087510/image/%E8%80%81%E8%82%96%E9%A1%B6%E4%BA%BA%E7%89%A9%E7%85%A746.jpg
http://www.xiangshu.com/UploadFiles/Day_181026/11_778516_cdd7a2ece9e88bf.jpg
http://storage.ning.com/topology/rest/1.0/file/get/148817698?profile=RESIZE_710x&width=600
https://twrrr.com/wp-content/uploads/2017/07/IMG_3539-919x349.jpg
http://pic.289.com/up/article/2014/1010/143506_78105604.jpg
http://i3.sinaimg.cn/dy/cr/2011/1026/389774769.jpg
https://farm9.static.flickr.com/8876/17835639748_bace667b17.jpg
http://image.digitalarchives.tw/ImageCache/00/46/7b/17.jpg
https://i1.read01.com/SIG=35j807g/3039344f6b313030.jpg
http://mirlab.org/jang/books/html/example/2D%E5%90%88%E6%88%90/ps101.jpg
https://i1.wp.com/pic3.zhimg.com/50/7f2c296862dffb8b0e510560cffa5732_hd.jpg
https://watermark.lovepik.com/photo/00005/3040.jpg_wh1200.jpg
https://s.yimg.com/ny/api/res/1.2/MkvgN9WYs_ylNSIyj.nPFw--~A/YXBwaWQ9aGlnaGxhbmRlcjtzbT0xO3c9ODAwO2lsPXBsYW5l/http://media.zenfs.com/zh_hant_tw/News/KoreaStar/132367-114017.jpg
http://n4-q.mafengwo.net/s9/M00/D6/92/wKgBs1ZuigaAUQ4XAAPbZVOSlVE09.jpeg?imageView2%2F2%2Fw%2F2000%2Fh%2F600%2Fq%2F90
http://pic1.win4000.com/wallpaper/2/535f08936cb59.jpg
http://www.6699fa.cn/shenghuo/yule/images/shu14061305_clip_image003.jpg
http://mmbiz.qpic.cn/mmbiz_jpg/ypCCibtIUtOWYa4rGWvSdkUKfbGAl9Q9BCiaPEuPjg5Iv01POL0Sz8c8EGmibpNFoRjs42XgINnicicBic6FzGiboyX8A/0?wx_fmt=jpeg
http://www.twdreamlife.com/wp-content/uploads/2017/04/%E9%98%BF%E5%87%B1%E4%BA%BA%E7%89%A9%E7%85%A7.jpg
http://www.drawwithlight.hk/wp-content/uploads/2015/04/00512.jpg
https://www.booklife.com.tw/upload_files/booklife/prodeditor/0926-1(2).jpg
https://i2.kknews.cc/SIG=o6gn9p/ctp-vzntr/15409523873440sn2o5p9o1.jpg
https://eznewlife.com/uploads/1502068917-qZPIx.jpg
https://inews.gtimg.com/newsapp_match/0/7325715782/0
https://images.gamme.com.tw/wallpaper/2012/04/1/o5qUoKOcmKmZpMullqGX-630x233.jpg
http://img3.cache.netease.com/photo/0003/2012-05-10/814SHB4F00B70003.jpg
https://pic.pimg.tw/missrachelnina/1467630914-1283765657_n.jpg
http://imgtu.5011.net/uploads/content/20170717/8157911500286128.jpg
http://c1.staticflickr.com/8/7781/17402981363_3238da2a72_n.jpg
http://www.xinhuanet.com/photo/129854827_15241919595061n.jpg
https://s.zimedia.com.tw/s/YH3J1V-0
http://www.twdreamlife.com/wp-content/uploads/2015/09/%E6%9D%BE%E6%A0%BC%E8%A8%AD%E8%A8%88-%E4%BA%BA%E7%89%A9%E7%85%A7.jpg
http://img.pconline.com.cn/images/upload/upc/tx/photoblog/1112/19/c10/9991623_9991623_1324299328570_mthumb.jpg
https://hexiup.2344.com/nqvaoZtoY6GlxJuvYKfWmZlkxaJhpc-bna-SoKCfYm/-tnLiIrqWqq46Zm5aMmdOjr5m3jZWblKKXlqGjppB1qoiL2WHDnK1kea5zdpOJ3mKqi7N1lJrLnKN2lmSDkKiPn5q6kqKdfomCkoaqZ2y9ZoGdz4ejfdOEdWRpZGJ3qq-VndOlnqmimw.jpg
http://www.xker.com/xkerfiles/allimg/0911/2301153P7-1.jpg
https://bbs-fd.zol-img.com.cn/t_s800x2000/g3/M06/09/09/Cg-4V1In-ZmIC_M8AAMtvIIll3oAALPggPM9CwAAy3U607.jpg
http://hbimg.b0.upaiyun.com/11504d8b2b66aedcda45fb2712c698d5d3c398013139c-ARmgTy_fw658
http://photocdn.sohu.com/20090714/Img265212129.jpg
https://www.trustphoto.com.tw/wp-content/uploads/2014/12/vincent_%E5%89%AF%E6%9C%AC.jpg
http://s16.sinaimg.cn/bmiddle/00687UNRzy737jSbjHxbf&690
https://dcfilms.tv/wp-content/uploads/2016/01/food1.jpg
https://img.zcool.cn/community/01efe5579c131e0000012e7e2a5a1d.JPG@1280w_1l_2o_100sh.jpg
http://pic31.nipic.com/20130719/2828440_164853645138_2.jpg
http://image.digitalarchives.tw/ImageCache/00/46/7b/1e.jpg
http://www.china5080.com/frontuserfiles/a114087510/image/%E8%80%81%E8%82%96%E9%A1%B6%E4%BA%BA%E7%89%A9%E7%85%A747_%E5%89%AF%E6%9C%AC_b.jpg
http://img.135q.com/2016-08/16/14713307400001.jpg
https://2.share.photo.xuite.net/benphotoservice/122661b/10371530/1161880913_x.jpg
https://bbs.qn.img-space.com/201807/26/f2fe1749b9140fd1480a17890a1543f5.jpg?imageView2/2/w/1800/q/100/ignore-error/1/
https://farm5.staticflickr.com/4200/33978656953_631c9d3609_b.jpg